JK_SBT_KBN:Str,RIYO_KAISHI_YMD:Date,SKYYOKEN_PROC_PTN:Str,GYOMU_KYOTSU_YMD:Date,RIYO_SHURYO_YMD_SETTEI_KBN:Str,RIYO_SHURYO_YMD:Date,TOROKU_DATE:Date,TOROKU_PGMID:Str,TOROKU_USERID:Str,KOSHIN_DATE:Date,KOSHIN_PGMID:Str,KOSHIN_USERID:Str,HAITA_DATE:Date
8,2017/04/01,1,2017/04/01,0,Null,2017/04/01 12:00,IBA,CCBUSER,2017/04/01 12:00,CCB,CCBUSER,20170401120000000
9,2017/04/01,1,2017/04/01,0,Null,2017/04/01 12:00,IBA,CCBUSER,2017/04/01 12:00,CCB,CCBUSER,20170401120000000
10,2011/01/01,6,2011/01/01,0,Null,2010/01/11 12:00,IBA,CCBUSER,2010/01/11 12:00,CCB,CCBUSER,20100111120000000
11,2011/01/01,4,2011/01/01,0,Null,2010/01/11 12:00,IBA,CCBUSER,2010/01/11 12:00,CCB,CCBUSER,20100111120000000
12,2011/01/01,3,2011/01/01,0,Null,2010/01/11 12:00,IBA,CCBUSER,2010/01/11 12:00,CCB,CCBUSER,20100111120000000
13,2011/01/01,3,2011/01/01,0,Null,2010/01/11 12:00,IBA,CCBUSER,2010/01/11 12:00,CCB,CCBUSER,20100111120000000
14,2011/01/01,6,2011/01/01,0,Null,2010/01/11 12:00,IBA,CCBUSER,2010/01/11 12:00,CCB,CCBUSER,20100111120000000
15,2011/01/01,6,2011/01/01,0,Null,2010/01/11 12:00,IBA,CCBUSER,2010/01/11 12:00,CCB,CCBUSER,20100111120000000
16,2011/01/01,5,2011/01/01,0,Null,2010/01/11 12:00,IBA,CCBUSER,2010/01/11 12:00,CCB,CCBUSER,20100111120000000
17,2011/01/01,5,2011/01/01,0,Null,2010/01/11 12:00,IBA,CCBUSER,2010/01/11 12:00,CCB,CCBUSER,20100111120000000
18,2011/01/01,2,2011/01/01,0,Null,2010/01/11 12:00,IBA,CCBUSER,2010/01/11 12:00,CCB,CCBUSER,20100111120000000
19,2011/01/01,2,2011/01/01,0,Null,2010/01/11 12:00,IBA,CCBUSER,2010/01/11 12:00,CCB,CCBUSER,20100111120000000
20,2011/01/01,2,2011/01/01,0,Null,2010/01/11 12:00,IBA,CCBUSER,2010/01/11 12:00,CCB,CCBUSER,20100111120000000
21,2011/01/01,2,2011/01/01,0,Null,2010/01/11 12:00,IBA,CCBUSER,2010/01/11 12:00,CCB,CCBUSER,20100111120000000
22,2011/01/01,2,2011/01/01,0,Null,2010/01/11 12:00,IBA,CCBUSER,2010/01/11 12:00,CCB,CCBUSER,20100111120000000
23,2011/01/01,7,2011/01/01,0,Null,2010/01/11 12:00,IBA,CCBUSER,2010/01/11 12:00,CCB,CCBUSER,20100111120000000
24,2011/01/01,1,2011/01/01,0,Null,2010/01/11 12:00,IBA,CCBUSER,2010/01/11 12:00,CCB,CCBUSER,20100111120000000
25,2011/01/01,1,2011/01/01,0,Null,2010/01/11 12:00,IBA,CCBUSER,2010/01/11 12:00,CCB,CCBUSER,20100111120000000
26,2011/01/01,7,2011/01/01,0,Null,2010/01/11 12:00,IBA,CCBUSER,2010/01/11 12:00,CCB,CCBUSER,20100111120000000
27,2011/01/01,5,2011/01/01,0,Null,2010/01/11 12:00,IBA,CCBUSER,2010/01/11 12:00,CCB,CCBUSER,20100111120000000
28,2011/01/01,1,2011/01/01,0,Null,2010/01/11 12:00,IBA,CCBUSER,2010/01/11 12:00,CCB,CCBUSER,20100111120000000
29,2011/01/01,1,2011/01/01,0,Null,2010/01/11 12:00,IBA,CCBUSER,2010/01/11 12:00,CCB,CCBUSER,20100111120000000
30,2011/01/01,1,2011/01/01,0,Null,2010/01/11 12:00,IBA,CCBUSER,2010/01/11 12:00,CCB,CCBUSER,20100111120000000
31,2011/01/01,5,2011/01/01,0,Null,2010/01/11 12:00,IBA,CCBUSER,2010/01/11 12:00,CCB,CCBUSER,20100111120000000
32,2011/01/01,5,2011/01/01,0,Null,2010/01/11 12:00,IBA,CCBUSER,2010/01/11 12:00,CCB,CCBUSER,20100111120000000
50,2011/01/01,1,2011/01/01,0,Null,2010/01/11 12:00,IBA,CCBUSER,2010/01/11 12:00,CCB,CCBUSER,20100111120000000
51,2011/01/01,1,2011/01/01,0,Null,2010/01/11 12:00,IBA,CCBUSER,2010/01/11 12:00,CCB,CCBUSER,20100111120000000
52,2011/01/01,1,2011/01/01,0,Null,2010/01/11 12:00,IBA,CCBUSER,2010/01/11 12:00,CCB,CCBUSER,20100111120000000
53,2011/01/01,1,2011/01/01,0,Null,2010/01/11 12:00,IBA,CCBUSER,2010/01/11 12:00,CCB,CCBUSER,20100111120000000
54,2011/01/01,4,2011/01/01,0,Null,2010/01/11 12:00,IBA,CCBUSER,2010/01/11 12:00,CCB,CCBUSER,20100111120000000
55,2011/01/01,4,2011/01/01,0,Null,2010/01/11 12:00,IBA,CCBUSER,2010/01/11 12:00,CCB,CCBUSER,20100111120000000
56,2011/01/01,1,2011/01/01,0,Null,2010/01/11 12:00,IBA,CCBUSER,2010/01/11 12:00,CCB,CCBUSER,20100111120000000
57,2011/01/01,1,2011/01/01,0,Null,2010/01/11 12:00,IBA,CCBUSER,2010/01/11 12:00,CCB,CCBUSER,20100111120000000
58,2011/01/01,1,2011/01/01,0,Null,2010/01/11 12:00,IBA,CCBUSER,2010/01/11 12:00,CCB,CCBUSER,20100111120000000
59,2011/01/01,1,2011/01/01,0,Null,2010/01/11 12:00,IBA,CCBUSER,2010/01/11 12:00,CCB,CCBUSER,20100111120000000
60,2011/01/01,1,2011/01/01,0,Null,2010/01/11 12:00,IBA,CCBUSER,2010/01/11 12:00,CCB,CCBUSER,20100111120000000
61,2011/01/01,1,2011/01/01,0,Null,2010/01/11 12:00,IBA,CCBUSER,2010/01/11 12:00,CCB,CCBUSER,20100111120000000
62,2011/01/01,6,2011/01/01,0,Null,2010/01/11 12:00,IBA,CCBUSER,2010/01/11 12:00,CCB,CCBUSER,20100111120000000
63,2011/01/01,6,2011/01/01,0,Null,2010/01/11 12:00,IBA,CCBUSER,2010/01/11 12:00,CCB,CCBUSER,20100111120000000
64,2011/01/01,1,2011/01/01,0,Null,2010/01/11 12:00,IBA,CCBUSER,2010/01/11 12:00,CCB,CCBUSER,20100111120000000
65,2011/01/01,5,2011/01/01,0,Null,2010/01/11 12:00,IBA,CCBUSER,2010/01/11 12:00,CCB,CCBUSER,20100111120000000
66,2011/01/01,6,2011/01/01,0,Null,2010/01/11 12:00,IBA,CCBUSER,2010/01/11 12:00,CCB,CCBUSER,20100111120000000
67,2011/01/01,1,2011/01/01,0,Null,2010/01/11 12:00,IBA,CCBUSER,2010/01/11 12:00,CCB,CCBUSER,20100111120000000
68,2011/01/01,1,2011/01/01,0,Null,2010/01/11 12:00,IBA,CCBUSER,2010/01/11 12:00,CCB,CCBUSER,20100111120000000
69,2011/01/01,1,2011/01/01,0,Null,2010/01/11 12:00,IBA,CCBUSER,2010/01/11 12:00,CCB,CCBUSER,20100111120000000
70,2011/01/01,5,2011/01/01,0,Null,2010/01/11 12:00,IBA,CCBUSER,2010/01/11 12:00,CCB,CCBUSER,20100111120000000
71,2011/01/01,5,2011/01/01,0,Null,2010/01/11 12:00,IBA,CCBUSER,2010/01/11 12:00,CCB,CCBUSER,20100111120000000
72,2011/01/01,5,2011/01/01,0,Null,2010/01/11 12:00,IBA,CCBUSER,2010/01/11 12:00,CCB,CCBUSER,20100111120000000
73,2011/01/01,5,2011/01/01,0,Null,2010/01/11 12:00,IBA,CCBUSER,2010/01/11 12:00,CCB,CCBUSER,20100111120000000
74,2011/01/01,1,2011/01/01,0,Null,2010/01/11 12:00,IBA,CCBUSER,2010/01/11 12:00,CCB,CCBUSER,20100111120000000
75,2011/01/01,1,2011/01/01,0,Null,2010/01/11 12:00,IBA,CCBUSER,2010/01/11 12:00,CCB,CCBUSER,20100111120000000
76,2011/01/01,1,2011/01/01,0,Null,2010/01/11 12:00,IBA,CCBUSER,2010/01/11 12:00,CCB,CCBUSER,20100111120000000
77,2011/01/01,1,2011/01/01,0,Null,2010/01/11 12:00,IBA,CCBUSER,2010/01/11 12:00,CCB,CCBUSER,20100111120000000
78,2011/01/01,5,2011/01/01,0,Null,2010/01/11 12:00,IBA,CCBUSER,2010/01/11 12:00,CCB,CCBUSER,20100111120000000
79,2011/01/01,5,2011/01/01,0,Null,2010/01/11 12:00,IBA,CCBUSER,2010/01/11 12:00,CCB,CCBUSER,20100111120000000
80,2011/01/01,4,2011/01/01,0,Null,2010/01/11 12:00,IBA,CCBUSER,2010/01/11 12:00,CCB,CCBUSER,20100111120000000
81,2011/01/01,5,2011/01/01,0,Null,2010/01/11 12:00,IBA,CCBUSER,2010/01/11 12:00,CCB,CCBUSER,20100111120000000
82,2011/01/01,5,2011/01/01,0,Null,2010/01/11 12:00,IBA,CCBUSER,2010/01/11 12:00,CCB,CCBUSER,20100111120000000
83,2011/01/01,5,2011/01/01,0,Null,2010/01/11 12:00,IBA,CCBUSER,2010/01/11 12:00,CCB,CCBUSER,20100111120000000
84,2011/01/01,5,2011/01/01,0,Null,2010/01/11 12:00,IBA,CCBUSER,2010/01/11 12:00,CCB,CCBUSER,20100111120000000
85,2011/01/01,5,2011/01/01,0,Null,2010/01/11 12:00,IBA,CCBUSER,2010/01/11 12:00,CCB,CCBUSER,20100111120000000
86,2011/01/01,1,2011/01/01,0,Null,2010/01/11 12:00,IBA,CCBUSER,2010/01/11 12:00,CCB,CCBUSER,20100111120000000
87,2011/01/01,6,2011/01/01,0,Null,2010/01/11 12:00,IBA,CCBUSER,2010/01/11 12:00,CCB,CCBUSER,20100111120000000
88,2011/01/01,6,2011/01/01,0,Null,2010/01/11 12:00,IBA,CCBUSER,2010/01/11 12:00,CCB,CCBUSER,20100111120000000
89,2011/01/01,2,2011/01/01,0,Null,2010/01/11 12:00,IBA,CCBUSER,2010/01/11 12:00,CCB,CCBUSER,20100111120000000
90,2011/01/01,6,2011/01/01,0,Null,2010/01/11 12:00,IBA,CCBUSER,2010/01/11 12:00,CCB,CCBUSER,20100111120000000
91,2011/01/01,5,2011/01/01,0,Null,2010/01/11 12:00,IBA,CCBUSER,2010/01/11 12:00,CCB,CCBUSER,20100111120000000
92,2011/01/01,6,2011/01/01,0,Null,2010/01/11 12:00,IBA,CCBUSER,2010/01/11 12:00,CCB,CCBUSER,20100111120000000
93,2011/01/01,5,2011/01/01,0,Null,2010/01/11 12:00,IBA,CCBUSER,2010/01/11 12:00,CCB,CCBUSER,20100111120000000
94,2011/01/01,1,2011/01/01,0,Null,2010/01/11 12:00,IBA,CCBUSER,2010/01/11 12:00,CCB,CCBUSER,20100111120000000
95,2011/01/01,4,2011/01/01,0,Null,2010/01/11 12:00,IBA,CCBUSER,2010/01/11 12:00,CCB,CCBUSER,20100111120000000
96,2011/01/01,4,2011/01/01,0,Null,2010/01/11 12:00,IBA,CCBUSER,2010/01/11 12:00,CCB,CCBUSER,20100111120000000
97,2011/01/01,4,2011/01/01,0,Null,2010/01/11 12:00,IBA,CCBUSER,2010/01/11 12:00,CCB,CCBUSER,20100111120000000
98,2011/01/01,4,2011/01/01,0,Null,2010/01/11 12:00,IBA,CCBUSER,2010/01/11 12:00,CCB,CCBUSER,20100111120000000
99,2011/01/01,1,2011/01/01,0,Null,2010/01/11 12:00,IBA,CCBUSER,2010/01/11 12:00,CCB,CCBUSER,20100111120000000
100,2011/01/01,4,2020/04/01,0,Null,2010/01/11 12:00,IBA,CCBUSER,2010/01/11 12:00,CCB,CCBUSER,20100111120000000
101,2011/01/01,5,2020/04/02,0,Null,2010/01/11 12:00,IBA,CCBUSER,2010/01/11 12:00,CCB,CCBUSER,20100111120000000
102,2011/01/01,5,2020/04/02,0,Null,2010/01/11 12:00,IBA,CCBUSER,2010/01/11 12:00,CCB,CCBUSER,20100111120000000
103,2011/01/01,1,2020/04/03,0,Null,2010/01/11 12:00,IBA,CCBUSER,2010/01/11 12:00,CCB,CCBUSER,20100111120000000
104,2011/01/01,4,2020/04/03,0,Null,2010/01/11 12:00,IBA,CCBUSER,2010/01/11 12:00,CCB,CCBUSER,20100111120000000
105,2011/01/01,1,2020/04/03,0,Null,2010/01/11 12:00,IBA,CCBUSER,2010/01/11 12:00,CCB,CCBUSER,20100111120000000
106,2011/01/01,6,2020/04/04,0,Null,2010/01/11 12:00,IBA,CCBUSER,2010/01/11 12:00,CCB,CCBUSER,20100111120000000
107,2011/01/01,6,2020/04/04,0,Null,2010/01/11 12:00,IBA,CCBUSER,2010/01/11 12:00,CCB,CCBUSER,20100111120000000
108,2011/01/01,5,2020/04/04,0,Null,2010/01/11 12:00,IBA,CCBUSER,2010/01/11 12:00,CCB,CCBUSER,20100111120000000
109,2011/01/01,5,2020/04/04,0,Null,2010/01/11 12:00,IBA,CCBUSER,2010/01/11 12:00,CCB,CCBUSER,20100111120000000
110,2011/01/01,6,2020/04/04,0,Null,2010/01/11 12:00,IBA,CCBUSER,2010/01/11 12:00,CCB,CCBUSER,20100111120000000
111,2011/01/01,6,2020/04/05,0,Null,2010/01/11 12:00,IBA,CCBUSER,2010/01/11 12:00,CCB,CCBUSER,20100111120000000
112,2011/01/01,6,2020/04/05,0,Null,2010/01/11 12:00,IBA,CCBUSER,2010/01/11 12:00,CCB,CCBUSER,20100111120000000
113,2011/01/01,6,2020/04/05,0,Null,2010/01/11 12:00,IBA,CCBUSER,2010/01/11 12:00,CCB,CCBUSER,20100111120000000
114,2011/01/01,6,2020/04/05,0,Null,2010/01/11 12:00,IBA,CCBUSER,2010/01/11 12:00,CCB,CCBUSER,20100111120000000
115,2011/01/01,5,2020/04/05,0,Null,2010/01/11 12:00,IBA,CCBUSER,2010/01/11 12:00,CCB,CCBUSER,20100111120000000
116,2011/01/01,6,2020/04/05,0,Null,2010/01/11 12:00,IBA,CCBUSER,2010/01/11 12:00,CCB,CCBUSER,20100111120000000
117,2011/01/01,2,2011/01/01,0,Null,2010/01/11 12:00,IBA,CCBUSER,2010/01/11 12:00,CCB,CCBUSER,20100111120000000
118,2011/01/01,3,2011/01/01,0,Null,2010/01/11 12:00,IBA,CCBUSER,2010/01/11 12:00,CCB,CCBUSER,20100111120000000
119,2011/01/01,6,2011/01/01,0,Null,2010/01/11 12:00,IBA,CCBUSER,2010/01/11 12:00,CCB,CCBUSER,20100111120000000
120,2011/01/01,6,2011/01/01,0,Null,2010/01/11 12:00,IBA,CCBUSER,2010/01/11 12:00,CCB,CCBUSER,20100111120000000
121,2011/01/01,6,2011/01/01,0,Null,2010/01/11 12:00,IBA,CCBUSER,2010/01/11 12:00,CCB,CCBUSER,20100111120000000
122,2011/01/01,6,2011/01/01,0,Null,2010/01/11 12:00,IBA,CCBUSER,2010/01/11 12:00,CCB,CCBUSER,20100111120000000
123,2011/01/01,1,2011/01/01,0,Null,2010/01/11 12:00,IBA,CCBUSER,2010/01/11 12:00,CCB,CCBUSER,20100111120000000
124,2011/01/01,6,2011/01/01,0,Null,2010/01/11 12:00,IBA,CCBUSER,2010/01/11 12:00,CCB,CCBUSER,20100111120000000
125,2011/01/01,6,2011/01/01,0,Null,2010/01/11 12:00,IBA,CCBUSER,2010/01/11 12:00,CCB,CCBUSER,20100111120000000
126,2011/01/01,2,2011/01/01,0,Null,2010/01/11 12:00,IBA,CCBUSER,2010/01/11 12:00,CCB,CCBUSER,20100111120000000
127,2011/01/01,6,2011/01/01,0,Null,2010/01/11 12:00,IBA,CCBUSER,2010/01/11 12:00,CCB,CCBUSER,20100111120000000
5017,2011/01/01,2,2011/01/01,0,Null,2010/01/11 12:00,IBA,CCBUSER,2010/01/11 12:00,CCB,CCBUSER,20100111120000000
5091,2011/01/01,6,2011/01/01,0,Null,2010/01/11 12:00,IBA,CCBUSER,2010/01/11 12:00,CCB,CCBUSER,20100111120000000
5093,2011/01/01,6,2011/01/01,0,Null,2010/01/11 12:00,IBA,CCBUSER,2010/01/11 12:00,CCB,CCBUSER,20100111120000000
5108,2011/01/01,6,2011/01/01,0,Null,2010/01/11 12:00,IBA,CCBUSER,2010/01/11 12:00,CCB,CCBUSER,20100111120000000
5109,2011/01/01,6,2011/01/01,0,Null,2010/01/11 12:00,IBA,CCBUSER,2010/01/11 12:00,CCB,CCBUSER,20100111120000000
