col1:Int,col2:Str,col3:Str,col4:Str,col5:Str,col6:Str,col7:Str,col8:Str,col9:Str,col10:Str,amount:Int,id:Str
1,B1,C1,D1,E1,F1,G1,H1,I1,J1,12,A
2,B2,C2,D2,E2,F2,G2,H2,I2,J2,3,B
3,B3,C3,D3,E3,F3,G3,H3,I3,J3,29,B
4,B4,C4,D4,E4,F4,G4,H4,I4,J4,12,B
1,B5,C5,D5,E5,F5,G5,H5,I5,J5,7,A
