col1:Int,col2:Str,col3:Str,col4:Str,col5:Str,col6:Str,col7:Str,col8:Str,col9:Str,col10:Str,amount:Int,id:Str
1,B1,C1,D1,E1,F1,G1,H1,I1,20180301,12,A
2,B2,C2,D2,E2,F2,G2,H2,I2,20170212,3,B
3,B3,C3,D3,E3,F3,G3,H3,I3,20190321,29,B
4,B4,C4,D4,E4,F4,G4,H4,I4,20171201,12,B
1,B5,C5,D5,E5,F5,G5,H5,I5,20180219,7,A
1,B6,C6,D6,E6,F6,G6,H6,I6,20180311,18,C
