SKYYOKEN_PROC_PTN:Str,HISSU_KMK:Str,KMK_CHECK:Str,KAIKOYOKEN_OUT_KBN:Str,TKTI_JKY_SKK_YOKEN_OUT_KBN:Str
01,22222,0,0,0
02,11122,1,1,1
03,11111,0,0,0
04,22112,0,0,0
05,22122,0,0,0
06,11112,0,1,1
07,11112,0,1,0
